module github.com/hashicorp/terraform-provider-vault

go 1.16

require (
	github.com/Azure/azure-sdk-for-go v58.3.0+incompatible
	github.com/Azure/go-autorest/autorest v0.11.21
	github.com/Azure/go-autorest/autorest/azure/auth v0.5.8
	github.com/aws/aws-sdk-go v1.41.8
	github.com/denisenkom/go-mssqldb v0.11.0
	github.com/go-sql-driver/mysql v1.6.0
	github.com/gosimple/slug v1.11.0
	github.com/hashicorp/errwrap v1.1.0
	github.com/hashicorp/go-cleanhttp v0.5.2
	github.com/hashicorp/go-hclog v1.0.0
	github.com/hashicorp/go-multierror v1.1.1
	github.com/hashicorp/go-secure-stdlib/awsutil v0.1.5
	github.com/hashicorp/go-secure-stdlib/parseutil v0.1.2
	github.com/hashicorp/terraform-plugin-sdk/v2 v2.10.0
	github.com/hashicorp/vault v1.2.1-0.20211214161113-fcc5f22bea02
	github.com/hashicorp/vault/api v1.3.0
	github.com/hashicorp/vault/sdk v0.3.1-0.20211214161113-fcc5f22bea02
	github.com/mitchellh/go-homedir v1.1.0
	golang.org/x/oauth2 v0.0.0-20211005180243-6b3c2da341f1
)
